<?xml version="1.0" encoding="UTF-8" standalone="no"?>
<svg
   xmlns:dc="http://purl.org/dc/elements/1.1/"
   xmlns:cc="http://creativecommons.org/ns#"
   xmlns:rdf="http://www.w3.org/1999/02/22-rdf-syntax-ns#"
   xmlns:svg="http://www.w3.org/2000/svg"
   xmlns="http://www.w3.org/2000/svg"
   xmlns:sodipodi="http://sodipodi.sourceforge.net/DTD/sodipodi-0.dtd"
   xmlns:inkscape="http://www.inkscape.org/namespaces/inkscape"
   id="Group_1282"
   data-name="Group 1282"
   width="128"
   height="128"
   viewBox="0 0 128 128.00001"
   version="1.1"
   sodipodi:docname="linkedin.svg"
   inkscape:version="0.92.4 (unknown)">
  <metadata
     id="metadata10">
    <rdf:RDF>
      <cc:Work
         rdf:about="">
        <dc:format>image/svg+xml</dc:format>
        <dc:type
           rdf:resource="http://purl.org/dc/dcmitype/StillImage" />
        <dc:title></dc:title>
      </cc:Work>
    </rdf:RDF>
  </metadata>
  <defs
     id="defs8" />
  <sodipodi:namedview
     pagecolor="#ffffff"
     bordercolor="#666666"
     borderopacity="1"
     objecttolerance="10"
     gridtolerance="10"
     guidetolerance="10"
     inkscape:pageopacity="0"
     inkscape:pageshadow="2"
     inkscape:window-width="1920"
     inkscape:window-height="1171"
     id="namedview6"
     showgrid="false"
     inkscape:zoom="5.1090593"
     inkscape:cx="62.756892"
     inkscape:cy="50.237875"
     inkscape:window-x="3840"
     inkscape:window-y="0"
     inkscape:window-maximized="1"
     inkscape:current-layer="Group_1282" />
  <path
     id="Path_2520"
     data-name="Path 2520"
     d="M 109.06206,109.06527 H 90.096464 V 79.364386 c 0,-7.08248 -0.12648,-16.19984 -9.864088,-16.19984 -9.877914,0 -11.389234,7.71664 -11.389234,15.68416 V 109.06327 H 49.877544 V 47.986146 h 18.206973 v 8.34688 h 0.25484 a 19.953389,19.953389 0 0 1 17.963979,-9.86608 c 19.222424,0 22.766614,12.64376 22.766614,29.0924 z M 28.47803,39.637346 A 11.005973,11.005973 0 1 1 39.482026,28.629426 11.005973,11.005973 0 0 1 28.47803,39.637346 m 9.482799,69.427924 H 18.975475 V 47.986146 H 37.960829 Z M 118.5172,0.01310554 H 9.4452624 A 9.3405568,9.3405568 0 0 0 0,9.2390255 V 118.76343 a 9.3464832,9.3464832 0 0 0 9.4452624,9.23584 H 118.5172 A 9.3662392,9.3662392 0 0 0 128,118.76343 V 9.2311855 a 9.360312,9.360312 0 0 0 -9.4828,-9.22599996"
     inkscape:connector-curvature="0"
     style="fill:#0a66c2;stroke-width:1.97558308" />
</svg>
